{"xsearch": {
"from": 1,
"to": 10,
"records": 980,
"list": [
{
"identifier": "http://libris.kb.se/bib/12554741",
"title": "Alban [Ljudupptagning] : popmuffa för små hundar",
"creator": "Lindgren, Barbro 1937-",
"type": "sound recording",
"publisher": "Enskede : TPB",
"date": "2006",
"language": "und",
"description": "MTM MarcRecordId: 127585",
"relation": "Alban",
"urls": {
"Mtm": [
["http://www.legimus.se/work/redirect?MedieNr=C48471", ["Ladda ner. Tillgänglig för personer med läsnedsättning enligt § 17 Upphovsrättslagen"]]
]
}
},
{
"identifier": "http://libris.kb.se/bib/12584064",
"title": "Bara Sparvel [Ljudupptagning]",
"creator": "Lindgren, Barbro 1937-",
"type": "sound recording",
"publisher": "Enskede : TPB",
"date": "2006",
"language": "swe",
"description": "MTM MarcRecordId: 126097",
"relation": "Bara Sparvel",
"urls": {
"Mtm": [
["http://www.legimus.se/work/redirect?MedieNr=C47562", ["Ladda ner. Tillgänglig för personer med läsnedsättning enligt § 17 Upphovsrättslagen"]]
]
}
},
{
"identifier": "http://libris.kb.se/bib/9392299",
"title": "Boken om Benny : en samlingsvolym",
"creator": "Lindgren, Barbro, 1937-",
"isbn": "9129661188",
"type": "book",
"publisher": "Stockholm : Rabén & Sjögren",
"date": "2004",
"language": "swe"
},
{
"identifier": "http://libris.kb.se/bib/9496484",
"title": "Boka om Benny",
"creator": "Lindgren, Barbro, 1937-",
"isbn": [
"8252163912",
"8252163920"
],
"type": "book",
"publisher": "Oslo : Det norske samlaget",
"date": "2004",
"language": "nno"
},
{
"identifier": "http://libris.kb.se/bib/7234396",
"title": "Felipe : Eldvin ; Molnens bröder",
"creator": "Lindgren, Barbro, 1937-",
"isbn": "9129522951 ;",
"type": "book",
"publisher": "Stockholm : Rabén & Sjögren",
"date": "1979",
"language": "swe"
},
{
"identifier": "http://libris.kb.se/bib/12579454",
"title": "Garderobsbio [Ljudupptagning]",
"creator": "Lindgren, Barbro 1937-",
"type": "sound recording",
"publisher": "Enskede : TPB",
"date": "2006",
"language": "und",
"description": "MTM MarcRecordId: 127780",
"relation": "Garderobsbio",
"urls": {
"Mtm": [
["http://www.legimus.se/work/redirect?MedieNr=C47431", ["Ladda ner. Tillgänglig för personer med läsnedsättning enligt § 17 Upphovsrättslagen"]]
]
}
},
{
"identifier": "http://libris.kb.se/bib/7236246",
"title": "Hemligheter : en samlingsvolym",
"creator": "Lindgren, Barbro, 1937-",
"isbn": "9129590302",
"type": "book",
"publisher": "Stockholm : Rabén & Sjögren",
"date": "1988",
"language": "swe",
"description": [
"Li: S",
"Kartonnerad"
]
},
{
"identifier": "http://libris.kb.se/bib/12607883",
"title": "En liten cyklist [Ljudupptagning] : [dikter]",
"creator": "Lindgren, Barbro 1937-",
"type": "sound recording",
"publisher": "Johanneshov : TPB",
"date": "2009",
"language": "swe",
"description": "MTM MarcRecordId: 172042",
"relation": "En liten cyklist",
"urls": {
"Mtm": [
["http://www.legimus.se/work/redirect?MedieNr=C28819", ["Ladda ner. Tillgänglig för personer med läsnedsättning enligt § 17 Upphovsrättslagen"]]
]
}
},
{
"identifier": "http://libris.kb.se/bib/7237683",
"title": "Loranga : del ett & två : en samlingsvolym",
"creator": "Lindgren, Barbro, 1937-",
"isbn": "912963900X",
"type": "book",
"publisher": "Stockholm : Rabén & Sjögren",
"date": "1996",
"language": "swe",
"description": "Li: S"
},
{
"identifier": "http://libris.kb.se/bib/10011415",
"title": "Loranga : del 1 & 2",
"creator": "Lindgren, Barbro, 1937-",
"isbn": [
"9129665043",
"9789129665048"
],
"type": "book",
"publisher": "Stockholm : Rabén & Sjögren",
"date": "2005",
"language": "swe",
"description": "NB: I publikationen felaktigt: Första upplagan, andra tryckningen"
}
]
}}